<?xml version="1.0" encoding="UTF-8"?>
<svg xmlns="http://www.w3.org/2000/svg" xmlns:xlink="http://www.w3.org/1999/xlink"
     width="631.6441507763839" height="4554.927771439103" viewBox="-180.72027048092983 -4446.927771439103 631.6441507763839 4554.927771439103">
<defs>
<style type="text/css">
.l4d0 {stroke: rgb(85, 255, 255); fill: rgb(85, 255, 255); fill-opacity: 0.5;}
.l3d0 {stroke: rgb(255, 255, 64); fill: rgb(255, 255, 64); fill-opacity: 0.5;}
</style>
<g id="back_stop1994151924896" >
<polygon class="l3d0" points="-5.0,-8.0 -5.0,-4.0 5.0,-4.0 5.0,-8.0"/>
<polygon class="l3d0" points="-50.0,-8.0 -50.0,-108.0 50.0,-108.0 50.0,-8.0"/>
</g>
<g id="SingleFlexure_1994151924784" >
<polygon class="l3d0" points="0.0,-2.0 0.0,4.0 330.92388029545407,4.0 330.92388029545407,-2.0"/>
<polygon class="l3d0" points="330.92388029545407,-50.0 330.92388029545407,50.0 430.92388029545407,50.0 430.92388029545407,-50.0"/>
</g>
<g id="GCA_STA_1994151924896" >
<polygon class="l3d0" points="80.72027048092983,3616.0334243506095 80.72027048092983,31.226343081872074 180.72027048092983,31.226343081872074 180.72027048092983,3616.0334243506095"/>
<polygon class="l3d0" points="-80.72027048092983,3616.0334243506095 -80.72027048092983,31.226343081872074 -180.72027048092983,31.226343081872074 -180.72027048092983,3616.0334243506095"/>
<use transform="translate(80.72027048092961 3606.0334243506095) rotate(-90.0) scale(1 -1) translate(0.0 0.0)" xlink:href="#finger_1994151924896"/>
<use transform="translate(80.72027048092961 3606.0334243506095) rotate(-90.0) scale(1 -1) translate(35.96572542123069 0.0)" xlink:href="#finger_1994151924896"/>
<use transform="translate(80.72027048092961 3606.0334243506095) rotate(-90.0) scale(1 -1) translate(71.93145084246137 0.0)" xlink:href="#finger_1994151924896"/>
<use transform="translate(80.72027048092961 3606.0334243506095) rotate(-90.0) scale(1 -1) translate(107.89717626369206 0.0)" xlink:href="#finger_1994151924896"/>
<use transform="translate(80.72027048092961 3606.0334243506095) rotate(-90.0) scale(1 -1) translate(143.86290168492275 0.0)" xlink:href="#finger_1994151924896"/>
<use transform="translate(80.72027048092961 3606.0334243506095) rotate(-90.0) scale(1 -1) translate(179.82862710615342 0.0)" xlink:href="#finger_1994151924896"/>
<use transform="translate(80.72027048092961 3606.0334243506095) rotate(-90.0) scale(1 -1) translate(215.79435252738412 0.0)" xlink:href="#finger_1994151924896"/>
<use transform="translate(80.72027048092961 3606.0334243506095) rotate(-90.0) scale(1 -1) translate(251.76007794861482 0.0)" xlink:href="#finger_1994151924896"/>
<use transform="translate(80.72027048092961 3606.0334243506095) rotate(-90.0) scale(1 -1) translate(287.7258033698455 0.0)" xlink:href="#finger_1994151924896"/>
<use transform="translate(80.72027048092961 3606.0334243506095) rotate(-90.0) scale(1 -1) translate(323.69152879107617 0.0)" xlink:href="#finger_1994151924896"/>
<use transform="translate(80.72027048092961 3606.0334243506095) rotate(-90.0) scale(1 -1) translate(359.65725421230684 0.0)" xlink:href="#finger_1994151924896"/>
<use transform="translate(80.72027048092961 3606.0334243506095) rotate(-90.0) scale(1 -1) translate(395.62297963353757 0.0)" xlink:href="#finger_1994151924896"/>
<use transform="translate(80.72027048092961 3606.0334243506095) rotate(-90.0) scale(1 -1) translate(431.58870505476824 0.0)" xlink:href="#finger_1994151924896"/>
<use transform="translate(80.72027048092961 3606.0334243506095) rotate(-90.0) scale(1 -1) translate(467.5544304759989 0.0)" xlink:href="#finger_1994151924896"/>
<use transform="translate(80.72027048092961 3606.0334243506095) rotate(-90.0) scale(1 -1) translate(503.52015589722964 0.0)" xlink:href="#finger_1994151924896"/>
<use transform="translate(80.72027048092961 3606.0334243506095) rotate(-90.0) scale(1 -1) translate(539.4858813184603 0.0)" xlink:href="#finger_1994151924896"/>
<use transform="translate(80.72027048092961 3606.0334243506095) rotate(-90.0) scale(1 -1) translate(575.451606739691 0.0)" xlink:href="#finger_1994151924896"/>
<use transform="translate(80.72027048092961 3606.0334243506095) rotate(-90.0) scale(1 -1) translate(611.4173321609217 0.0)" xlink:href="#finger_1994151924896"/>
<use transform="translate(80.72027048092961 3606.0334243506095) rotate(-90.0) scale(1 -1) translate(647.3830575821523 0.0)" xlink:href="#finger_1994151924896"/>
<use transform="translate(80.72027048092961 3606.0334243506095) rotate(-90.0) scale(1 -1) translate(683.348783003383 0.0)" xlink:href="#finger_1994151924896"/>
<use transform="translate(80.72027048092961 3606.0334243506095) rotate(-90.0) scale(1 -1) translate(719.3145084246137 0.0)" xlink:href="#finger_1994151924896"/>
<use transform="translate(80.72027048092961 3606.0334243506095) rotate(-90.0) scale(1 -1) translate(755.2802338458445 0.0)" xlink:href="#finger_1994151924896"/>
<use transform="translate(80.72027048092961 3606.0334243506095) rotate(-90.0) scale(1 -1) translate(791.2459592670751 0.0)" xlink:href="#finger_1994151924896"/>
<use transform="translate(80.72027048092961 3606.0334243506095) rotate(-90.0) scale(1 -1) translate(827.2116846883058 0.0)" xlink:href="#finger_1994151924896"/>
<use transform="translate(80.72027048092961 3606.0334243506095) rotate(-90.0) scale(1 -1) translate(863.1774101095365 0.0)" xlink:href="#finger_1994151924896"/>
<use transform="translate(80.72027048092961 3606.0334243506095) rotate(-90.0) scale(1 -1) translate(899.1431355307672 0.0)" xlink:href="#finger_1994151924896"/>
<use transform="translate(80.72027048092961 3606.0334243506095) rotate(-90.0) scale(1 -1) translate(935.1088609519978 0.0)" xlink:href="#finger_1994151924896"/>
<use transform="translate(80.72027048092961 3606.0334243506095) rotate(-90.0) scale(1 -1) translate(971.0745863732285 0.0)" xlink:href="#finger_1994151924896"/>
<use transform="translate(80.72027048092961 3606.0334243506095) rotate(-90.0) scale(1 -1) translate(1007.0403117944593 0.0)" xlink:href="#finger_1994151924896"/>
<use transform="translate(80.72027048092961 3606.0334243506095) rotate(-90.0) scale(1 -1) translate(1043.00603721569 0.0)" xlink:href="#finger_1994151924896"/>
<use transform="translate(80.72027048092961 3606.0334243506095) rotate(-90.0) scale(1 -1) translate(1078.9717626369206 0.0)" xlink:href="#finger_1994151924896"/>
<use transform="translate(80.72027048092961 3606.0334243506095) rotate(-90.0) scale(1 -1) translate(1114.9374880581513 0.0)" xlink:href="#finger_1994151924896"/>
<use transform="translate(80.72027048092961 3606.0334243506095) rotate(-90.0) scale(1 -1) translate(1150.903213479382 0.0)" xlink:href="#finger_1994151924896"/>
<use transform="translate(80.72027048092961 3606.0334243506095) rotate(-90.0) scale(1 -1) translate(1186.8689389006126 0.0)" xlink:href="#finger_1994151924896"/>
<use transform="translate(80.72027048092961 3606.0334243506095) rotate(-90.0) scale(1 -1) translate(1222.8346643218433 0.0)" xlink:href="#finger_1994151924896"/>
<use transform="translate(80.72027048092961 3606.0334243506095) rotate(-90.0) scale(1 -1) translate(1258.800389743074 0.0)" xlink:href="#finger_1994151924896"/>
<use transform="translate(80.72027048092961 3606.0334243506095) rotate(-90.0) scale(1 -1) translate(1294.7661151643047 0.0)" xlink:href="#finger_1994151924896"/>
<use transform="translate(80.72027048092961 3606.0334243506095) rotate(-90.0) scale(1 -1) translate(1330.7318405855353 0.0)" xlink:href="#finger_1994151924896"/>
<use transform="translate(80.72027048092961 3606.0334243506095) rotate(-90.0) scale(1 -1) translate(1366.697566006766 0.0)" xlink:href="#finger_1994151924896"/>
<use transform="translate(80.72027048092961 3606.0334243506095) rotate(-90.0) scale(1 -1) translate(1402.6632914279967 0.0)" xlink:href="#finger_1994151924896"/>
<use transform="translate(80.72027048092961 3606.0334243506095) rotate(-90.0) scale(1 -1) translate(1438.6290168492274 0.0)" xlink:href="#finger_1994151924896"/>
<use transform="translate(80.72027048092961 3606.0334243506095) rotate(-90.0) scale(1 -1) translate(1474.5947422704583 0.0)" xlink:href="#finger_1994151924896"/>
<use transform="translate(80.72027048092961 3606.0334243506095) rotate(-90.0) scale(1 -1) translate(1510.560467691689 0.0)" xlink:href="#finger_1994151924896"/>
<use transform="translate(80.72027048092961 3606.0334243506095) rotate(-90.0) scale(1 -1) translate(1546.5261931129196 0.0)" xlink:href="#finger_1994151924896"/>
<use transform="translate(80.72027048092961 3606.0334243506095) rotate(-90.0) scale(1 -1) translate(1582.4919185341503 0.0)" xlink:href="#finger_1994151924896"/>
<use transform="translate(80.72027048092961 3606.0334243506095) rotate(-90.0) scale(1 -1) translate(1618.457643955381 0.0)" xlink:href="#finger_1994151924896"/>
<use transform="translate(80.72027048092961 3606.0334243506095) rotate(-90.0) scale(1 -1) translate(1654.4233693766116 0.0)" xlink:href="#finger_1994151924896"/>
<use transform="translate(80.72027048092961 3606.0334243506095) rotate(-90.0) scale(1 -1) translate(1690.3890947978423 0.0)" xlink:href="#finger_1994151924896"/>
<use transform="translate(80.72027048092961 3606.0334243506095) rotate(-90.0) scale(1 -1) translate(1726.354820219073 0.0)" xlink:href="#finger_1994151924896"/>
<use transform="translate(80.72027048092961 3606.0334243506095) rotate(-90.0) scale(1 -1) translate(1762.3205456403036 0.0)" xlink:href="#finger_1994151924896"/>
<use transform="translate(80.72027048092961 3606.0334243506095) rotate(-90.0) scale(1 -1) translate(1798.2862710615343 0.0)" xlink:href="#finger_1994151924896"/>
<use transform="translate(80.72027048092961 3606.0334243506095) rotate(-90.0) scale(1 -1) translate(1834.251996482765 0.0)" xlink:href="#finger_1994151924896"/>
<use transform="translate(80.72027048092961 3606.0334243506095) rotate(-90.0) scale(1 -1) translate(1870.2177219039957 0.0)" xlink:href="#finger_1994151924896"/>
<use transform="translate(80.72027048092961 3606.0334243506095) rotate(-90.0) scale(1 -1) translate(1906.1834473252263 0.0)" xlink:href="#finger_1994151924896"/>
<use transform="translate(80.72027048092961 3606.0334243506095) rotate(-90.0) scale(1 -1) translate(1942.149172746457 0.0)" xlink:href="#finger_1994151924896"/>
<use transform="translate(80.72027048092961 3606.0334243506095) rotate(-90.0) scale(1 -1) translate(1978.1148981676877 0.0)" xlink:href="#finger_1994151924896"/>
<use transform="translate(80.72027048092961 3606.0334243506095) rotate(-90.0) scale(1 -1) translate(2014.0806235889186 0.0)" xlink:href="#finger_1994151924896"/>
<use transform="translate(80.72027048092961 3606.0334243506095) rotate(-90.0) scale(1 -1) translate(2050.0463490101492 0.0)" xlink:href="#finger_1994151924896"/>
<use transform="translate(80.72027048092961 3606.0334243506095) rotate(-90.0) scale(1 -1) translate(2086.01207443138 0.0)" xlink:href="#finger_1994151924896"/>
<use transform="translate(80.72027048092961 3606.0334243506095) rotate(-90.0) scale(1 -1) translate(2121.9777998526106 0.0)" xlink:href="#finger_1994151924896"/>
<use transform="translate(80.72027048092961 3606.0334243506095) rotate(-90.0) scale(1 -1) translate(2157.9435252738413 0.0)" xlink:href="#finger_1994151924896"/>
<use transform="translate(80.72027048092961 3606.0334243506095) rotate(-90.0) scale(1 -1) translate(2193.909250695072 0.0)" xlink:href="#finger_1994151924896"/>
<use transform="translate(80.72027048092961 3606.0334243506095) rotate(-90.0) scale(1 -1) translate(2229.8749761163026 0.0)" xlink:href="#finger_1994151924896"/>
<use transform="translate(80.72027048092961 3606.0334243506095) rotate(-90.0) scale(1 -1) translate(2265.8407015375333 0.0)" xlink:href="#finger_1994151924896"/>
<use transform="translate(80.72027048092961 3606.0334243506095) rotate(-90.0) scale(1 -1) translate(2301.806426958764 0.0)" xlink:href="#finger_1994151924896"/>
<use transform="translate(80.72027048092961 3606.0334243506095) rotate(-90.0) scale(1 -1) translate(2337.7721523799946 0.0)" xlink:href="#finger_1994151924896"/>
<use transform="translate(80.72027048092961 3606.0334243506095) rotate(-90.0) scale(1 -1) translate(2373.7378778012253 0.0)" xlink:href="#finger_1994151924896"/>
<use transform="translate(80.72027048092961 3606.0334243506095) rotate(-90.0) scale(1 -1) translate(2409.703603222456 0.0)" xlink:href="#finger_1994151924896"/>
<use transform="translate(80.72027048092961 3606.0334243506095) rotate(-90.0) scale(1 -1) translate(2445.6693286436866 0.0)" xlink:href="#finger_1994151924896"/>
<use transform="translate(80.72027048092961 3606.0334243506095) rotate(-90.0) scale(1 -1) translate(2481.6350540649173 0.0)" xlink:href="#finger_1994151924896"/>
<use transform="translate(80.72027048092961 3606.0334243506095) rotate(-90.0) scale(1 -1) translate(2517.600779486148 0.0)" xlink:href="#finger_1994151924896"/>
<use transform="translate(80.72027048092961 3606.0334243506095) rotate(-90.0) scale(1 -1) translate(2553.5665049073787 0.0)" xlink:href="#finger_1994151924896"/>
<use transform="translate(80.72027048092961 3606.0334243506095) rotate(-90.0) scale(1 -1) translate(2589.5322303286093 0.0)" xlink:href="#finger_1994151924896"/>
<use transform="translate(80.72027048092961 3606.0334243506095) rotate(-90.0) scale(1 -1) translate(2625.49795574984 0.0)" xlink:href="#finger_1994151924896"/>
<use transform="translate(80.72027048092961 3606.0334243506095) rotate(-90.0) scale(1 -1) translate(2661.4636811710707 0.0)" xlink:href="#finger_1994151924896"/>
<use transform="translate(80.72027048092961 3606.0334243506095) rotate(-90.0) scale(1 -1) translate(2697.4294065923013 0.0)" xlink:href="#finger_1994151924896"/>
<use transform="translate(80.72027048092961 3606.0334243506095) rotate(-90.0) scale(1 -1) translate(2733.395132013532 0.0)" xlink:href="#finger_1994151924896"/>
<use transform="translate(80.72027048092961 3606.0334243506095) rotate(-90.0) scale(1 -1) translate(2769.3608574347627 0.0)" xlink:href="#finger_1994151924896"/>
<use transform="translate(80.72027048092961 3606.0334243506095) rotate(-90.0) scale(1 -1) translate(2805.3265828559934 0.0)" xlink:href="#finger_1994151924896"/>
<use transform="translate(80.72027048092961 3606.0334243506095) rotate(-90.0) scale(1 -1) translate(2841.292308277224 0.0)" xlink:href="#finger_1994151924896"/>
<use transform="translate(80.72027048092961 3606.0334243506095) rotate(-90.0) scale(1 -1) translate(2877.2580336984547 0.0)" xlink:href="#finger_1994151924896"/>
<use transform="translate(80.72027048092961 3606.0334243506095) rotate(-90.0) scale(1 -1) translate(2913.223759119686 0.0)" xlink:href="#finger_1994151924896"/>
<use transform="translate(80.72027048092961 3606.0334243506095) rotate(-90.0) scale(1 -1) translate(2949.1894845409165 0.0)" xlink:href="#finger_1994151924896"/>
<use transform="translate(80.72027048092961 3606.0334243506095) rotate(-90.0) scale(1 -1) translate(2985.155209962147 0.0)" xlink:href="#finger_1994151924896"/>
<use transform="translate(80.72027048092961 3606.0334243506095) rotate(-90.0) scale(1 -1) translate(3021.120935383378 0.0)" xlink:href="#finger_1994151924896"/>
<use transform="translate(80.72027048092961 3606.0334243506095) rotate(-90.0) scale(1 -1) translate(3057.0866608046085 0.0)" xlink:href="#finger_1994151924896"/>
<use transform="translate(80.72027048092961 3606.0334243506095) rotate(-90.0) scale(1 -1) translate(3093.052386225839 0.0)" xlink:href="#finger_1994151924896"/>
<use transform="translate(80.72027048092961 3606.0334243506095) rotate(-90.0) scale(1 -1) translate(3129.01811164707 0.0)" xlink:href="#finger_1994151924896"/>
<use transform="translate(80.72027048092961 3606.0334243506095) rotate(-90.0) scale(1 -1) translate(3164.9838370683005 0.0)" xlink:href="#finger_1994151924896"/>
<use transform="translate(80.72027048092961 3606.0334243506095) rotate(-90.0) scale(1 -1) translate(3200.949562489531 0.0)" xlink:href="#finger_1994151924896"/>
<use transform="translate(80.72027048092961 3606.0334243506095) rotate(-90.0) scale(1 -1) translate(3236.915287910762 0.0)" xlink:href="#finger_1994151924896"/>
<use transform="translate(80.72027048092961 3606.0334243506095) rotate(-90.0) scale(1 -1) translate(3272.8810133319926 0.0)" xlink:href="#finger_1994151924896"/>
<use transform="translate(80.72027048092961 3606.0334243506095) rotate(-90.0) scale(1 -1) translate(3308.8467387532232 0.0)" xlink:href="#finger_1994151924896"/>
<use transform="translate(80.72027048092961 3606.0334243506095) rotate(-90.0) scale(1 -1) translate(3344.812464174454 0.0)" xlink:href="#finger_1994151924896"/>
<use transform="translate(80.72027048092961 3606.0334243506095) rotate(-90.0) scale(1 -1) translate(3380.7781895956846 0.0)" xlink:href="#finger_1994151924896"/>
<use transform="translate(80.72027048092961 3606.0334243506095) rotate(-90.0) scale(1 -1) translate(3416.7439150169153 0.0)" xlink:href="#finger_1994151924896"/>
<use transform="translate(80.72027048092961 3606.0334243506095) rotate(-90.0) scale(1 -1) translate(3452.709640438146 0.0)" xlink:href="#finger_1994151924896"/>
<use transform="translate(80.72027048092961 3606.0334243506095) rotate(-90.0) scale(1 -1) translate(3488.6753658593766 0.0)" xlink:href="#finger_1994151924896"/>
<use transform="translate(80.72027048092961 3606.0334243506095) rotate(-90.0) scale(1 -1) translate(3524.6410912806073 0.0)" xlink:href="#finger_1994151924896"/>
<use transform="translate(80.72027048092961 3606.0334243506095) rotate(-90.0) scale(1 -1) translate(3560.606816701838 0.0)" xlink:href="#finger_1994151924896"/>
<use transform="translate(-80.72027048092961 3606.0334243506095) rotate(-90.0) translate(0.0 0.0)" xlink:href="#finger_1994151924896"/>
<use transform="translate(-80.72027048092961 3606.0334243506095) rotate(-90.0) translate(35.96572542123069 0.0)" xlink:href="#finger_1994151924896"/>
<use transform="translate(-80.72027048092961 3606.0334243506095) rotate(-90.0) translate(71.93145084246137 0.0)" xlink:href="#finger_1994151924896"/>
<use transform="translate(-80.72027048092961 3606.0334243506095) rotate(-90.0) translate(107.89717626369206 0.0)" xlink:href="#finger_1994151924896"/>
<use transform="translate(-80.72027048092961 3606.0334243506095) rotate(-90.0) translate(143.86290168492275 0.0)" xlink:href="#finger_1994151924896"/>
<use transform="translate(-80.72027048092961 3606.0334243506095) rotate(-90.0) translate(179.82862710615342 0.0)" xlink:href="#finger_1994151924896"/>
<use transform="translate(-80.72027048092961 3606.0334243506095) rotate(-90.0) translate(215.79435252738412 0.0)" xlink:href="#finger_1994151924896"/>
<use transform="translate(-80.72027048092961 3606.0334243506095) rotate(-90.0) translate(251.76007794861482 0.0)" xlink:href="#finger_1994151924896"/>
<use transform="translate(-80.72027048092961 3606.0334243506095) rotate(-90.0) translate(287.7258033698455 0.0)" xlink:href="#finger_1994151924896"/>
<use transform="translate(-80.72027048092961 3606.0334243506095) rotate(-90.0) translate(323.69152879107617 0.0)" xlink:href="#finger_1994151924896"/>
<use transform="translate(-80.72027048092961 3606.0334243506095) rotate(-90.0) translate(359.65725421230684 0.0)" xlink:href="#finger_1994151924896"/>
<use transform="translate(-80.72027048092961 3606.0334243506095) rotate(-90.0) translate(395.62297963353757 0.0)" xlink:href="#finger_1994151924896"/>
<use transform="translate(-80.72027048092961 3606.0334243506095) rotate(-90.0) translate(431.58870505476824 0.0)" xlink:href="#finger_1994151924896"/>
<use transform="translate(-80.72027048092961 3606.0334243506095) rotate(-90.0) translate(467.5544304759989 0.0)" xlink:href="#finger_1994151924896"/>
<use transform="translate(-80.72027048092961 3606.0334243506095) rotate(-90.0) translate(503.52015589722964 0.0)" xlink:href="#finger_1994151924896"/>
<use transform="translate(-80.72027048092961 3606.0334243506095) rotate(-90.0) translate(539.4858813184603 0.0)" xlink:href="#finger_1994151924896"/>
<use transform="translate(-80.72027048092961 3606.0334243506095) rotate(-90.0) translate(575.451606739691 0.0)" xlink:href="#finger_1994151924896"/>
<use transform="translate(-80.72027048092961 3606.0334243506095) rotate(-90.0) translate(611.4173321609217 0.0)" xlink:href="#finger_1994151924896"/>
<use transform="translate(-80.72027048092961 3606.0334243506095) rotate(-90.0) translate(647.3830575821523 0.0)" xlink:href="#finger_1994151924896"/>
<use transform="translate(-80.72027048092961 3606.0334243506095) rotate(-90.0) translate(683.348783003383 0.0)" xlink:href="#finger_1994151924896"/>
<use transform="translate(-80.72027048092961 3606.0334243506095) rotate(-90.0) translate(719.3145084246137 0.0)" xlink:href="#finger_1994151924896"/>
<use transform="translate(-80.72027048092961 3606.0334243506095) rotate(-90.0) translate(755.2802338458445 0.0)" xlink:href="#finger_1994151924896"/>
<use transform="translate(-80.72027048092961 3606.0334243506095) rotate(-90.0) translate(791.2459592670751 0.0)" xlink:href="#finger_1994151924896"/>
<use transform="translate(-80.72027048092961 3606.0334243506095) rotate(-90.0) translate(827.2116846883058 0.0)" xlink:href="#finger_1994151924896"/>
<use transform="translate(-80.72027048092961 3606.0334243506095) rotate(-90.0) translate(863.1774101095365 0.0)" xlink:href="#finger_1994151924896"/>
<use transform="translate(-80.72027048092961 3606.0334243506095) rotate(-90.0) translate(899.1431355307672 0.0)" xlink:href="#finger_1994151924896"/>
<use transform="translate(-80.72027048092961 3606.0334243506095) rotate(-90.0) translate(935.1088609519978 0.0)" xlink:href="#finger_1994151924896"/>
<use transform="translate(-80.72027048092961 3606.0334243506095) rotate(-90.0) translate(971.0745863732285 0.0)" xlink:href="#finger_1994151924896"/>
<use transform="translate(-80.72027048092961 3606.0334243506095) rotate(-90.0) translate(1007.0403117944593 0.0)" xlink:href="#finger_1994151924896"/>
<use transform="translate(-80.72027048092961 3606.0334243506095) rotate(-90.0) translate(1043.00603721569 0.0)" xlink:href="#finger_1994151924896"/>
<use transform="translate(-80.72027048092961 3606.0334243506095) rotate(-90.0) translate(1078.9717626369206 0.0)" xlink:href="#finger_1994151924896"/>
<use transform="translate(-80.72027048092961 3606.0334243506095) rotate(-90.0) translate(1114.9374880581513 0.0)" xlink:href="#finger_1994151924896"/>
<use transform="translate(-80.72027048092961 3606.0334243506095) rotate(-90.0) translate(1150.903213479382 0.0)" xlink:href="#finger_1994151924896"/>
<use transform="translate(-80.72027048092961 3606.0334243506095) rotate(-90.0) translate(1186.8689389006126 0.0)" xlink:href="#finger_1994151924896"/>
<use transform="translate(-80.72027048092961 3606.0334243506095) rotate(-90.0) translate(1222.8346643218433 0.0)" xlink:href="#finger_1994151924896"/>
<use transform="translate(-80.72027048092961 3606.0334243506095) rotate(-90.0) translate(1258.800389743074 0.0)" xlink:href="#finger_1994151924896"/>
<use transform="translate(-80.72027048092961 3606.0334243506095) rotate(-90.0) translate(1294.7661151643047 0.0)" xlink:href="#finger_1994151924896"/>
<use transform="translate(-80.72027048092961 3606.0334243506095) rotate(-90.0) translate(1330.7318405855353 0.0)" xlink:href="#finger_1994151924896"/>
<use transform="translate(-80.72027048092961 3606.0334243506095) rotate(-90.0) translate(1366.697566006766 0.0)" xlink:href="#finger_1994151924896"/>
<use transform="translate(-80.72027048092961 3606.0334243506095) rotate(-90.0) translate(1402.6632914279967 0.0)" xlink:href="#finger_1994151924896"/>
<use transform="translate(-80.72027048092961 3606.0334243506095) rotate(-90.0) translate(1438.6290168492274 0.0)" xlink:href="#finger_1994151924896"/>
<use transform="translate(-80.72027048092961 3606.0334243506095) rotate(-90.0) translate(1474.5947422704583 0.0)" xlink:href="#finger_1994151924896"/>
<use transform="translate(-80.72027048092961 3606.0334243506095) rotate(-90.0) translate(1510.560467691689 0.0)" xlink:href="#finger_1994151924896"/>
<use transform="translate(-80.72027048092961 3606.0334243506095) rotate(-90.0) translate(1546.5261931129196 0.0)" xlink:href="#finger_1994151924896"/>
<use transform="translate(-80.72027048092961 3606.0334243506095) rotate(-90.0) translate(1582.4919185341503 0.0)" xlink:href="#finger_1994151924896"/>
<use transform="translate(-80.72027048092961 3606.0334243506095) rotate(-90.0) translate(1618.457643955381 0.0)" xlink:href="#finger_1994151924896"/>
<use transform="translate(-80.72027048092961 3606.0334243506095) rotate(-90.0) translate(1654.4233693766116 0.0)" xlink:href="#finger_1994151924896"/>
<use transform="translate(-80.72027048092961 3606.0334243506095) rotate(-90.0) translate(1690.3890947978423 0.0)" xlink:href="#finger_1994151924896"/>
<use transform="translate(-80.72027048092961 3606.0334243506095) rotate(-90.0) translate(1726.354820219073 0.0)" xlink:href="#finger_1994151924896"/>
<use transform="translate(-80.72027048092961 3606.0334243506095) rotate(-90.0) translate(1762.3205456403036 0.0)" xlink:href="#finger_1994151924896"/>
<use transform="translate(-80.72027048092961 3606.0334243506095) rotate(-90.0) translate(1798.2862710615343 0.0)" xlink:href="#finger_1994151924896"/>
<use transform="translate(-80.72027048092961 3606.0334243506095) rotate(-90.0) translate(1834.251996482765 0.0)" xlink:href="#finger_1994151924896"/>
<use transform="translate(-80.72027048092961 3606.0334243506095) rotate(-90.0) translate(1870.2177219039957 0.0)" xlink:href="#finger_1994151924896"/>
<use transform="translate(-80.72027048092961 3606.0334243506095) rotate(-90.0) translate(1906.1834473252263 0.0)" xlink:href="#finger_1994151924896"/>
<use transform="translate(-80.72027048092961 3606.0334243506095) rotate(-90.0) translate(1942.149172746457 0.0)" xlink:href="#finger_1994151924896"/>
<use transform="translate(-80.72027048092961 3606.0334243506095) rotate(-90.0) translate(1978.1148981676877 0.0)" xlink:href="#finger_1994151924896"/>
<use transform="translate(-80.72027048092961 3606.0334243506095) rotate(-90.0) translate(2014.0806235889186 0.0)" xlink:href="#finger_1994151924896"/>
<use transform="translate(-80.72027048092961 3606.0334243506095) rotate(-90.0) translate(2050.0463490101492 0.0)" xlink:href="#finger_1994151924896"/>
<use transform="translate(-80.72027048092961 3606.0334243506095) rotate(-90.0) translate(2086.01207443138 0.0)" xlink:href="#finger_1994151924896"/>
<use transform="translate(-80.72027048092961 3606.0334243506095) rotate(-90.0) translate(2121.9777998526106 0.0)" xlink:href="#finger_1994151924896"/>
<use transform="translate(-80.72027048092961 3606.0334243506095) rotate(-90.0) translate(2157.9435252738413 0.0)" xlink:href="#finger_1994151924896"/>
<use transform="translate(-80.72027048092961 3606.0334243506095) rotate(-90.0) translate(2193.909250695072 0.0)" xlink:href="#finger_1994151924896"/>
<use transform="translate(-80.72027048092961 3606.0334243506095) rotate(-90.0) translate(2229.8749761163026 0.0)" xlink:href="#finger_1994151924896"/>
<use transform="translate(-80.72027048092961 3606.0334243506095) rotate(-90.0) translate(2265.8407015375333 0.0)" xlink:href="#finger_1994151924896"/>
<use transform="translate(-80.72027048092961 3606.0334243506095) rotate(-90.0) translate(2301.806426958764 0.0)" xlink:href="#finger_1994151924896"/>
<use transform="translate(-80.72027048092961 3606.0334243506095) rotate(-90.0) translate(2337.7721523799946 0.0)" xlink:href="#finger_1994151924896"/>
<use transform="translate(-80.72027048092961 3606.0334243506095) rotate(-90.0) translate(2373.7378778012253 0.0)" xlink:href="#finger_1994151924896"/>
<use transform="translate(-80.72027048092961 3606.0334243506095) rotate(-90.0) translate(2409.703603222456 0.0)" xlink:href="#finger_1994151924896"/>
<use transform="translate(-80.72027048092961 3606.0334243506095) rotate(-90.0) translate(2445.6693286436866 0.0)" xlink:href="#finger_1994151924896"/>
<use transform="translate(-80.72027048092961 3606.0334243506095) rotate(-90.0) translate(2481.6350540649173 0.0)" xlink:href="#finger_1994151924896"/>
<use transform="translate(-80.72027048092961 3606.0334243506095) rotate(-90.0) translate(2517.600779486148 0.0)" xlink:href="#finger_1994151924896"/>
<use transform="translate(-80.72027048092961 3606.0334243506095) rotate(-90.0) translate(2553.5665049073787 0.0)" xlink:href="#finger_1994151924896"/>
<use transform="translate(-80.72027048092961 3606.0334243506095) rotate(-90.0) translate(2589.5322303286093 0.0)" xlink:href="#finger_1994151924896"/>
<use transform="translate(-80.72027048092961 3606.0334243506095) rotate(-90.0) translate(2625.49795574984 0.0)" xlink:href="#finger_1994151924896"/>
<use transform="translate(-80.72027048092961 3606.0334243506095) rotate(-90.0) translate(2661.4636811710707 0.0)" xlink:href="#finger_1994151924896"/>
<use transform="translate(-80.72027048092961 3606.0334243506095) rotate(-90.0) translate(2697.4294065923013 0.0)" xlink:href="#finger_1994151924896"/>
<use transform="translate(-80.72027048092961 3606.0334243506095) rotate(-90.0) translate(2733.395132013532 0.0)" xlink:href="#finger_1994151924896"/>
<use transform="translate(-80.72027048092961 3606.0334243506095) rotate(-90.0) translate(2769.3608574347627 0.0)" xlink:href="#finger_1994151924896"/>
<use transform="translate(-80.72027048092961 3606.0334243506095) rotate(-90.0) translate(2805.3265828559934 0.0)" xlink:href="#finger_1994151924896"/>
<use transform="translate(-80.72027048092961 3606.0334243506095) rotate(-90.0) translate(2841.292308277224 0.0)" xlink:href="#finger_1994151924896"/>
<use transform="translate(-80.72027048092961 3606.0334243506095) rotate(-90.0) translate(2877.2580336984547 0.0)" xlink:href="#finger_1994151924896"/>
<use transform="translate(-80.72027048092961 3606.0334243506095) rotate(-90.0) translate(2913.223759119686 0.0)" xlink:href="#finger_1994151924896"/>
<use transform="translate(-80.72027048092961 3606.0334243506095) rotate(-90.0) translate(2949.1894845409165 0.0)" xlink:href="#finger_1994151924896"/>
<use transform="translate(-80.72027048092961 3606.0334243506095) rotate(-90.0) translate(2985.155209962147 0.0)" xlink:href="#finger_1994151924896"/>
<use transform="translate(-80.72027048092961 3606.0334243506095) rotate(-90.0) translate(3021.120935383378 0.0)" xlink:href="#finger_1994151924896"/>
<use transform="translate(-80.72027048092961 3606.0334243506095) rotate(-90.0) translate(3057.0866608046085 0.0)" xlink:href="#finger_1994151924896"/>
<use transform="translate(-80.72027048092961 3606.0334243506095) rotate(-90.0) translate(3093.052386225839 0.0)" xlink:href="#finger_1994151924896"/>
<use transform="translate(-80.72027048092961 3606.0334243506095) rotate(-90.0) translate(3129.01811164707 0.0)" xlink:href="#finger_1994151924896"/>
<use transform="translate(-80.72027048092961 3606.0334243506095) rotate(-90.0) translate(3164.9838370683005 0.0)" xlink:href="#finger_1994151924896"/>
<use transform="translate(-80.72027048092961 3606.0334243506095) rotate(-90.0) translate(3200.949562489531 0.0)" xlink:href="#finger_1994151924896"/>
<use transform="translate(-80.72027048092961 3606.0334243506095) rotate(-90.0) translate(3236.915287910762 0.0)" xlink:href="#finger_1994151924896"/>
<use transform="translate(-80.72027048092961 3606.0334243506095) rotate(-90.0) translate(3272.8810133319926 0.0)" xlink:href="#finger_1994151924896"/>
<use transform="translate(-80.72027048092961 3606.0334243506095) rotate(-90.0) translate(3308.8467387532232 0.0)" xlink:href="#finger_1994151924896"/>
<use transform="translate(-80.72027048092961 3606.0334243506095) rotate(-90.0) translate(3344.812464174454 0.0)" xlink:href="#finger_1994151924896"/>
<use transform="translate(-80.72027048092961 3606.0334243506095) rotate(-90.0) translate(3380.7781895956846 0.0)" xlink:href="#finger_1994151924896"/>
<use transform="translate(-80.72027048092961 3606.0334243506095) rotate(-90.0) translate(3416.7439150169153 0.0)" xlink:href="#finger_1994151924896"/>
<use transform="translate(-80.72027048092961 3606.0334243506095) rotate(-90.0) translate(3452.709640438146 0.0)" xlink:href="#finger_1994151924896"/>
<use transform="translate(-80.72027048092961 3606.0334243506095) rotate(-90.0) translate(3488.6753658593766 0.0)" xlink:href="#finger_1994151924896"/>
<use transform="translate(-80.72027048092961 3606.0334243506095) rotate(-90.0) translate(3524.6410912806073 0.0)" xlink:href="#finger_1994151924896"/>
<use transform="translate(-80.72027048092961 3606.0334243506095) rotate(-90.0) translate(3560.606816701838 0.0)" xlink:href="#finger_1994151924896"/>
</g>
<g id="bump1994151924896" >
<polygon class="l3d0" points="0.0,0.0 0.0,4.0 10.0,4.0 10.0,0.0"/>
</g>
<g id="Arm_1994151924896" >
<polygon class="l3d0" points="2.0220950885831783,0.0 -93.52966667105824,641.0540586172938 -97.57385684822458,641.0540586172938 -2.0220950885831783,-0.0"/>
<use transform="translate(-108.17974398647605 641.0540586172938)" xlink:href="#Pawl1994151924896"/>
</g>
<g id="finger_1994151924896" >
<polygon class="l3d0" points="0.0,0.0 0.0,40.720270480929614 4.2002645668993726,40.720270480929614 4.2002645668993726,0.0"/>
</g>
<g id="Pawl1994151924896" >
<polygon class="l3d0" points="0.0,0.0 0.0,13.650077315417818 14.650077315417818,13.650077315417818 14.650077315417818,0.0"/>
<polygon class="l3d0" points="2.6250148683495804,13.650077315417818 5.250029736699161,13.650077315417818 5.1215523642651135,14.461251520224753 4.7486965073313065,15.19302234208217 4.167959895013931,15.773758954399543 3.436189073156516,16.14661481133335 2.6250148683495804,16.2750921837674 1.813840663542645,16.14661481133335 1.0820698416852295,15.773758954399543 0.5013332293678547,15.19302234208217 0.12847737243404733,14.461251520224753 0.0,13.650077315417818"/>
<polygon class="l3d0" points="11.025062447068239,13.650077315417818 13.650077315417818,13.650077315417818 13.521599942983771,14.461251520224753 13.148744086049964,15.19302234208217 12.568007473732589,15.773758954399543 11.836236651875174,16.14661481133335 11.025062447068239,16.2750921837674 10.213888242261303,16.14661481133335 9.482117420403886,15.773758954399543 8.901380808086513,15.19302234208217 8.528524951152704,14.461251520224753 8.400047578718658,13.650077315417818"/>
</g>
<g id="gstop_bar1994151924896" >
<polygon class="l3d0" points="-110.0,-24.0 -110.0,0.0 110.0,0.0 110.0,-24.0"/>
<use transform="translate(30.0 0.0) translate(0.0 0.0)" xlink:href="#bump1994151924896"/>
<use transform="translate(30.0 0.0) translate(30.0 0.0)" xlink:href="#bump1994151924896"/>
<use transform="translate(30.0 0.0) translate(60.0 0.0)" xlink:href="#bump1994151924896"/>
<use transform="translate(-100.0 0.0) translate(0.0 0.0)" xlink:href="#bump1994151924896"/>
<use transform="translate(-100.0 0.0) translate(30.0 0.0)" xlink:href="#bump1994151924896"/>
<use transform="translate(-100.0 0.0) translate(60.0 0.0)" xlink:href="#bump1994151924896"/>
</g>
<g id="rotor_shuttle1994151924896" >
<polygon class="l3d0" points="0.0,0.0 0.0,3789.598620638041 40.0,3789.598620638041 40.0,0.0"/>
<polygon class="l4d0" points="12.0,12.0 12.0,28.0 28.0,28.0 28.0,12.0"/>
<polygon class="l4d0" points="12.0,40.192470831864966 12.0,56.192470831864966 28.0,56.192470831864966 28.0,40.192470831864966"/>
<polygon class="l4d0" points="12.0,68.38494166372993 12.0,84.38494166372993 28.0,84.38494166372993 28.0,68.38494166372993"/>
<polygon class="l4d0" points="12.0,96.57741249559491 12.0,112.57741249559491 28.0,112.57741249559491 28.0,96.57741249559491"/>
<polygon class="l4d0" points="12.0,124.76988332745987 12.0,140.76988332745987 28.0,140.76988332745987 28.0,124.76988332745987"/>
<polygon class="l4d0" points="12.0,152.96235415932486 12.0,168.96235415932486 28.0,168.96235415932486 28.0,152.96235415932486"/>
<polygon class="l4d0" points="12.0,181.15482499118983 12.0,197.15482499118983 28.0,197.15482499118983 28.0,181.15482499118983"/>
<polygon class="l4d0" points="12.0,209.3472958230548 12.0,225.3472958230548 28.0,225.3472958230548 28.0,209.3472958230548"/>
<polygon class="l4d0" points="12.0,237.53976665491976 12.0,253.53976665491976 28.0,253.53976665491976 28.0,237.53976665491976"/>
<polygon class="l4d0" points="12.0,265.7322374867847 12.0,281.7322374867847 28.0,281.7322374867847 28.0,265.7322374867847"/>
<polygon class="l4d0" points="12.0,293.9247083186497 12.0,309.9247083186497 28.0,309.9247083186497 28.0,293.9247083186497"/>
<polygon class="l4d0" points="12.0,322.1171791505147 12.0,338.1171791505147 28.0,338.1171791505147 28.0,322.1171791505147"/>
<polygon class="l4d0" points="12.0,350.30964998237965 12.0,366.30964998237965 28.0,366.30964998237965 28.0,350.30964998237965"/>
<polygon class="l4d0" points="12.0,378.5021208142446 12.0,394.5021208142446 28.0,394.5021208142446 28.0,378.5021208142446"/>
<polygon class="l4d0" points="12.0,406.6945916461096 12.0,422.6945916461096 28.0,422.6945916461096 28.0,406.6945916461096"/>
<polygon class="l4d0" points="12.0,434.88706247797455 12.0,450.88706247797455 28.0,450.88706247797455 28.0,434.88706247797455"/>
<polygon class="l4d0" points="12.0,463.0795333098395 12.0,479.0795333098395 28.0,479.0795333098395 28.0,463.0795333098395"/>
<polygon class="l4d0" points="12.0,491.2720041417045 12.0,507.2720041417045 28.0,507.2720041417045 28.0,491.2720041417045"/>
<polygon class="l4d0" points="12.0,519.4644749735694 12.0,535.4644749735694 28.0,535.4644749735694 28.0,519.4644749735694"/>
<polygon class="l4d0" points="12.0,547.6569458054345 12.0,563.6569458054345 28.0,563.6569458054345 28.0,547.6569458054345"/>
<polygon class="l4d0" points="12.0,575.8494166372994 12.0,591.8494166372994 28.0,591.8494166372994 28.0,575.8494166372994"/>
<polygon class="l4d0" points="12.0,604.0418874691644 12.0,620.0418874691644 28.0,620.0418874691644 28.0,604.0418874691644"/>
<polygon class="l4d0" points="12.0,632.2343583010294 12.0,648.2343583010294 28.0,648.2343583010294 28.0,632.2343583010294"/>
<polygon class="l4d0" points="12.0,660.4268291328943 12.0,676.4268291328943 28.0,676.4268291328943 28.0,660.4268291328943"/>
<polygon class="l4d0" points="12.0,688.6192999647593 12.0,704.6192999647593 28.0,704.6192999647593 28.0,688.6192999647593"/>
<polygon class="l4d0" points="12.0,716.8117707966243 12.0,732.8117707966243 28.0,732.8117707966243 28.0,716.8117707966243"/>
<polygon class="l4d0" points="12.0,745.0042416284892 12.0,761.0042416284892 28.0,761.0042416284892 28.0,745.0042416284892"/>
<polygon class="l4d0" points="12.0,773.1967124603542 12.0,789.1967124603542 28.0,789.1967124603542 28.0,773.1967124603542"/>
<polygon class="l4d0" points="12.0,801.3891832922192 12.0,817.3891832922192 28.0,817.3891832922192 28.0,801.3891832922192"/>
<polygon class="l4d0" points="12.0,829.5816541240841 12.0,845.5816541240841 28.0,845.5816541240841 28.0,829.5816541240841"/>
<polygon class="l4d0" points="12.0,857.7741249559491 12.0,873.7741249559491 28.0,873.7741249559491 28.0,857.7741249559491"/>
<polygon class="l4d0" points="12.0,885.9665957878141 12.0,901.9665957878141 28.0,901.9665957878141 28.0,885.9665957878141"/>
<polygon class="l4d0" points="12.0,914.159066619679 12.0,930.159066619679 28.0,930.159066619679 28.0,914.159066619679"/>
<polygon class="l4d0" points="12.0,942.351537451544 12.0,958.351537451544 28.0,958.351537451544 28.0,942.351537451544"/>
<polygon class="l4d0" points="12.0,970.544008283409 12.0,986.544008283409 28.0,986.544008283409 28.0,970.544008283409"/>
<polygon class="l4d0" points="12.0,998.7364791152739 12.0,1014.7364791152739 28.0,1014.7364791152739 28.0,998.7364791152739"/>
<polygon class="l4d0" points="12.0,1026.9289499471388 12.0,1042.9289499471388 28.0,1042.9289499471388 28.0,1026.9289499471388"/>
<polygon class="l4d0" points="12.0,1055.121420779004 12.0,1071.121420779004 28.0,1071.121420779004 28.0,1055.121420779004"/>
<polygon class="l4d0" points="12.0,1083.313891610869 12.0,1099.313891610869 28.0,1099.313891610869 28.0,1083.313891610869"/>
<polygon class="l4d0" points="12.0,1111.506362442734 12.0,1127.506362442734 28.0,1127.506362442734 28.0,1111.506362442734"/>
<polygon class="l4d0" points="12.0,1139.6988332745989 12.0,1155.6988332745989 28.0,1155.6988332745989 28.0,1139.6988332745989"/>
<polygon class="l4d0" points="12.0,1167.8913041064638 12.0,1183.8913041064638 28.0,1183.8913041064638 28.0,1167.8913041064638"/>
<polygon class="l4d0" points="12.0,1196.0837749383288 12.0,1212.0837749383288 28.0,1212.0837749383288 28.0,1196.0837749383288"/>
<polygon class="l4d0" points="12.0,1224.2762457701938 12.0,1240.2762457701938 28.0,1240.2762457701938 28.0,1224.2762457701938"/>
<polygon class="l4d0" points="12.0,1252.4687166020587 12.0,1268.4687166020587 28.0,1268.4687166020587 28.0,1252.4687166020587"/>
<polygon class="l4d0" points="12.0,1280.6611874339237 12.0,1296.6611874339237 28.0,1296.6611874339237 28.0,1280.6611874339237"/>
<polygon class="l4d0" points="12.0,1308.8536582657887 12.0,1324.8536582657887 28.0,1324.8536582657887 28.0,1308.8536582657887"/>
<polygon class="l4d0" points="12.0,1337.0461290976536 12.0,1353.0461290976536 28.0,1353.0461290976536 28.0,1337.0461290976536"/>
<polygon class="l4d0" points="12.0,1365.2385999295186 12.0,1381.2385999295186 28.0,1381.2385999295186 28.0,1365.2385999295186"/>
<polygon class="l4d0" points="12.0,1393.4310707613836 12.0,1409.4310707613836 28.0,1409.4310707613836 28.0,1393.4310707613836"/>
<polygon class="l4d0" points="12.0,1421.6235415932485 12.0,1437.6235415932485 28.0,1437.6235415932485 28.0,1421.6235415932485"/>
<polygon class="l4d0" points="12.0,1449.8160124251135 12.0,1465.8160124251135 28.0,1465.8160124251135 28.0,1449.8160124251135"/>
<polygon class="l4d0" points="12.0,1478.0084832569785 12.0,1494.0084832569785 28.0,1494.0084832569785 28.0,1478.0084832569785"/>
<polygon class="l4d0" points="12.0,1506.2009540888434 12.0,1522.2009540888434 28.0,1522.2009540888434 28.0,1506.2009540888434"/>
<polygon class="l4d0" points="12.0,1534.3934249207084 12.0,1550.3934249207084 28.0,1550.3934249207084 28.0,1534.3934249207084"/>
<polygon class="l4d0" points="12.0,1562.5858957525734 12.0,1578.5858957525734 28.0,1578.5858957525734 28.0,1562.5858957525734"/>
<polygon class="l4d0" points="12.0,1590.7783665844383 12.0,1606.7783665844383 28.0,1606.7783665844383 28.0,1590.7783665844383"/>
<polygon class="l4d0" points="12.0,1618.9708374163033 12.0,1634.9708374163033 28.0,1634.9708374163033 28.0,1618.9708374163033"/>
<polygon class="l4d0" points="12.0,1647.1633082481683 12.0,1663.1633082481683 28.0,1663.1633082481683 28.0,1647.1633082481683"/>
<polygon class="l4d0" points="12.0,1675.3557790800332 12.0,1691.3557790800332 28.0,1691.3557790800332 28.0,1675.3557790800332"/>
<polygon class="l4d0" points="12.0,1703.5482499118982 12.0,1719.5482499118982 28.0,1719.5482499118982 28.0,1703.5482499118982"/>
<polygon class="l4d0" points="12.0,1731.7407207437632 12.0,1747.7407207437632 28.0,1747.7407207437632 28.0,1731.7407207437632"/>
<polygon class="l4d0" points="12.0,1759.9331915756281 12.0,1775.9331915756281 28.0,1775.9331915756281 28.0,1759.9331915756281"/>
<polygon class="l4d0" points="12.0,1788.125662407493 12.0,1804.125662407493 28.0,1804.125662407493 28.0,1788.125662407493"/>
<polygon class="l4d0" points="12.0,1816.318133239358 12.0,1832.318133239358 28.0,1832.318133239358 28.0,1816.318133239358"/>
<polygon class="l4d0" points="12.0,1844.510604071223 12.0,1860.510604071223 28.0,1860.510604071223 28.0,1844.510604071223"/>
<polygon class="l4d0" points="12.0,1872.703074903088 12.0,1888.703074903088 28.0,1888.703074903088 28.0,1872.703074903088"/>
<polygon class="l4d0" points="12.0,1900.895545734953 12.0,1916.895545734953 28.0,1916.895545734953 28.0,1900.895545734953"/>
<polygon class="l4d0" points="12.0,1929.088016566818 12.0,1945.088016566818 28.0,1945.088016566818 28.0,1929.088016566818"/>
<polygon class="l4d0" points="12.0,1957.280487398683 12.0,1973.280487398683 28.0,1973.280487398683 28.0,1957.280487398683"/>
<polygon class="l4d0" points="12.0,1985.4729582305479 12.0,2001.4729582305479 28.0,2001.4729582305479 28.0,1985.4729582305479"/>
<polygon class="l4d0" points="12.0,2013.6654290624128 12.0,2029.6654290624128 28.0,2029.6654290624128 28.0,2013.6654290624128"/>
<polygon class="l4d0" points="12.0,2041.8578998942776 12.0,2057.8578998942776 28.0,2057.8578998942776 28.0,2041.8578998942776"/>
<polygon class="l4d0" points="12.0,2070.050370726143 12.0,2086.050370726143 28.0,2086.050370726143 28.0,2070.050370726143"/>
<polygon class="l4d0" points="12.0,2098.242841558008 12.0,2114.242841558008 28.0,2114.242841558008 28.0,2098.242841558008"/>
<polygon class="l4d0" points="12.0,2126.4353123898727 12.0,2142.4353123898727 28.0,2142.4353123898727 28.0,2126.4353123898727"/>
<polygon class="l4d0" points="12.0,2154.627783221738 12.0,2170.627783221738 28.0,2170.627783221738 28.0,2154.627783221738"/>
<polygon class="l4d0" points="12.0,2182.8202540536026 12.0,2198.8202540536026 28.0,2198.8202540536026 28.0,2182.8202540536026"/>
<polygon class="l4d0" points="12.0,2211.012724885468 12.0,2227.012724885468 28.0,2227.012724885468 28.0,2211.012724885468"/>
<polygon class="l4d0" points="12.0,2239.2051957173326 12.0,2255.2051957173326 28.0,2255.2051957173326 28.0,2239.2051957173326"/>
<polygon class="l4d0" points="12.0,2267.3976665491978 12.0,2283.3976665491978 28.0,2283.3976665491978 28.0,2267.3976665491978"/>
<polygon class="l4d0" points="12.0,2295.5901373810625 12.0,2311.5901373810625 28.0,2311.5901373810625 28.0,2295.5901373810625"/>
<polygon class="l4d0" points="12.0,2323.7826082129277 12.0,2339.7826082129277 28.0,2339.7826082129277 28.0,2323.7826082129277"/>
<polygon class="l4d0" points="12.0,2351.9750790447924 12.0,2367.9750790447924 28.0,2367.9750790447924 28.0,2351.9750790447924"/>
<polygon class="l4d0" points="12.0,2380.1675498766576 12.0,2396.1675498766576 28.0,2396.1675498766576 28.0,2380.1675498766576"/>
<polygon class="l4d0" points="12.0,2408.3600207085224 12.0,2424.3600207085224 28.0,2424.3600207085224 28.0,2408.3600207085224"/>
<polygon class="l4d0" points="12.0,2436.5524915403876 12.0,2452.5524915403876 28.0,2452.5524915403876 28.0,2436.5524915403876"/>
<polygon class="l4d0" points="12.0,2464.7449623722523 12.0,2480.7449623722523 28.0,2480.7449623722523 28.0,2464.7449623722523"/>
<polygon class="l4d0" points="12.0,2492.9374332041175 12.0,2508.9374332041175 28.0,2508.9374332041175 28.0,2492.9374332041175"/>
<polygon class="l4d0" points="12.0,2521.1299040359822 12.0,2537.1299040359822 28.0,2537.1299040359822 28.0,2521.1299040359822"/>
<polygon class="l4d0" points="12.0,2549.3223748678474 12.0,2565.3223748678474 28.0,2565.3223748678474 28.0,2549.3223748678474"/>
<polygon class="l4d0" points="12.0,2577.514845699712 12.0,2593.514845699712 28.0,2593.514845699712 28.0,2577.514845699712"/>
<polygon class="l4d0" points="12.0,2605.7073165315774 12.0,2621.7073165315774 28.0,2621.7073165315774 28.0,2605.7073165315774"/>
<polygon class="l4d0" points="12.0,2633.899787363442 12.0,2649.899787363442 28.0,2649.899787363442 28.0,2633.899787363442"/>
<polygon class="l4d0" points="12.0,2662.0922581953073 12.0,2678.0922581953073 28.0,2678.0922581953073 28.0,2662.0922581953073"/>
<polygon class="l4d0" points="12.0,2690.284729027172 12.0,2706.284729027172 28.0,2706.284729027172 28.0,2690.284729027172"/>
<polygon class="l4d0" points="12.0,2718.4771998590372 12.0,2734.4771998590372 28.0,2734.4771998590372 28.0,2718.4771998590372"/>
<polygon class="l4d0" points="12.0,2746.669670690902 12.0,2762.669670690902 28.0,2762.669670690902 28.0,2746.669670690902"/>
<polygon class="l4d0" points="12.0,2774.862141522767 12.0,2790.862141522767 28.0,2790.862141522767 28.0,2774.862141522767"/>
<polygon class="l4d0" points="12.0,2803.054612354632 12.0,2819.054612354632 28.0,2819.054612354632 28.0,2803.054612354632"/>
<polygon class="l4d0" points="12.0,2831.247083186497 12.0,2847.247083186497 28.0,2847.247083186497 28.0,2831.247083186497"/>
<polygon class="l4d0" points="12.0,2859.439554018362 12.0,2875.439554018362 28.0,2875.439554018362 28.0,2859.439554018362"/>
<polygon class="l4d0" points="12.0,2887.632024850227 12.0,2903.632024850227 28.0,2903.632024850227 28.0,2887.632024850227"/>
<polygon class="l4d0" points="12.0,2915.8244956820918 12.0,2931.8244956820918 28.0,2931.8244956820918 28.0,2915.8244956820918"/>
<polygon class="l4d0" points="12.0,2944.016966513957 12.0,2960.016966513957 28.0,2960.016966513957 28.0,2944.016966513957"/>
<polygon class="l4d0" points="12.0,2972.2094373458217 12.0,2988.2094373458217 28.0,2988.2094373458217 28.0,2972.2094373458217"/>
<polygon class="l4d0" points="12.0,3000.401908177687 12.0,3016.401908177687 28.0,3016.401908177687 28.0,3000.401908177687"/>
<polygon class="l4d0" points="12.0,3028.5943790095516 12.0,3044.5943790095516 28.0,3044.5943790095516 28.0,3028.5943790095516"/>
<polygon class="l4d0" points="12.0,3056.786849841417 12.0,3072.786849841417 28.0,3072.786849841417 28.0,3056.786849841417"/>
<polygon class="l4d0" points="12.0,3084.9793206732816 12.0,3100.9793206732816 28.0,3100.9793206732816 28.0,3084.9793206732816"/>
<polygon class="l4d0" points="12.0,3113.1717915051468 12.0,3129.1717915051468 28.0,3129.1717915051468 28.0,3113.1717915051468"/>
<polygon class="l4d0" points="12.0,3141.3642623370115 12.0,3157.3642623370115 28.0,3157.3642623370115 28.0,3141.3642623370115"/>
<polygon class="l4d0" points="12.0,3169.5567331688767 12.0,3185.5567331688767 28.0,3185.5567331688767 28.0,3169.5567331688767"/>
<polygon class="l4d0" points="12.0,3197.7492040007414 12.0,3213.7492040007414 28.0,3213.7492040007414 28.0,3197.7492040007414"/>
<polygon class="l4d0" points="12.0,3225.9416748326066 12.0,3241.9416748326066 28.0,3241.9416748326066 28.0,3225.9416748326066"/>
<polygon class="l4d0" points="12.0,3254.1341456644714 12.0,3270.1341456644714 28.0,3270.1341456644714 28.0,3254.1341456644714"/>
<polygon class="l4d0" points="12.0,3282.3266164963366 12.0,3298.3266164963366 28.0,3298.3266164963366 28.0,3282.3266164963366"/>
<polygon class="l4d0" points="12.0,3310.5190873282013 12.0,3326.5190873282013 28.0,3326.5190873282013 28.0,3310.5190873282013"/>
<polygon class="l4d0" points="12.0,3338.7115581600665 12.0,3354.7115581600665 28.0,3354.7115581600665 28.0,3338.7115581600665"/>
<polygon class="l4d0" points="12.0,3366.904028991931 12.0,3382.904028991931 28.0,3382.904028991931 28.0,3366.904028991931"/>
<polygon class="l4d0" points="12.0,3395.0964998237964 12.0,3411.0964998237964 28.0,3411.0964998237964 28.0,3395.0964998237964"/>
<polygon class="l4d0" points="12.0,3423.288970655661 12.0,3439.288970655661 28.0,3439.288970655661 28.0,3423.288970655661"/>
<polygon class="l4d0" points="12.0,3451.4814414875264 12.0,3467.4814414875264 28.0,3467.4814414875264 28.0,3451.4814414875264"/>
<polygon class="l4d0" points="12.0,3479.673912319391 12.0,3495.673912319391 28.0,3495.673912319391 28.0,3479.673912319391"/>
<polygon class="l4d0" points="12.0,3507.8663831512563 12.0,3523.8663831512563 28.0,3523.8663831512563 28.0,3507.8663831512563"/>
<polygon class="l4d0" points="12.0,3536.058853983121 12.0,3552.058853983121 28.0,3552.058853983121 28.0,3536.058853983121"/>
<polygon class="l4d0" points="12.0,3564.251324814986 12.0,3580.251324814986 28.0,3580.251324814986 28.0,3564.251324814986"/>
<polygon class="l4d0" points="12.0,3592.443795646851 12.0,3608.443795646851 28.0,3608.443795646851 28.0,3592.443795646851"/>
<polygon class="l4d0" points="12.0,3620.636266478716 12.0,3636.636266478716 28.0,3636.636266478716 28.0,3620.636266478716"/>
<polygon class="l4d0" points="12.0,3648.8287373105813 12.0,3664.8287373105813 28.0,3664.8287373105813 28.0,3648.8287373105813"/>
<polygon class="l4d0" points="12.0,3677.021208142446 12.0,3693.021208142446 28.0,3693.021208142446 28.0,3677.021208142446"/>
<polygon class="l4d0" points="12.0,3705.2136789743113 12.0,3721.2136789743113 28.0,3721.2136789743113 28.0,3705.2136789743113"/>
<polygon class="l4d0" points="12.0,3733.406149806176 12.0,3749.406149806176 28.0,3749.406149806176 28.0,3733.406149806176"/>
<polygon class="l4d0" points="12.0,3761.598620638041 12.0,3777.598620638041 28.0,3777.598620638041 28.0,3761.598620638041"/>
</g>
<g id="GCA_ROT_1994151924896" >
<use transform="translate(-20.0 0.0)" xlink:href="#rotor_shuttle1994151924896"/>
<use transform="translate(20.0 12.0) rotate(0.0)" xlink:href="#SingleFlexure_1994151924784"/>
<use transform="translate(20.0 3777.598620638041) rotate(0.0)" xlink:href="#SingleFlexure_1994151924784"/>
<use transform="translate(20.0 3590.8070812687374) rotate(-90.0) translate(0.0 0.0)" xlink:href="#finger_1994151924896"/>
<use transform="translate(20.0 3590.8070812687374) rotate(-90.0) translate(35.96572542123069 0.0)" xlink:href="#finger_1994151924896"/>
<use transform="translate(20.0 3590.8070812687374) rotate(-90.0) translate(71.93145084246137 0.0)" xlink:href="#finger_1994151924896"/>
<use transform="translate(20.0 3590.8070812687374) rotate(-90.0) translate(107.89717626369206 0.0)" xlink:href="#finger_1994151924896"/>
<use transform="translate(20.0 3590.8070812687374) rotate(-90.0) translate(143.86290168492275 0.0)" xlink:href="#finger_1994151924896"/>
<use transform="translate(20.0 3590.8070812687374) rotate(-90.0) translate(179.82862710615342 0.0)" xlink:href="#finger_1994151924896"/>
<use transform="translate(20.0 3590.8070812687374) rotate(-90.0) translate(215.79435252738412 0.0)" xlink:href="#finger_1994151924896"/>
<use transform="translate(20.0 3590.8070812687374) rotate(-90.0) translate(251.76007794861482 0.0)" xlink:href="#finger_1994151924896"/>
<use transform="translate(20.0 3590.8070812687374) rotate(-90.0) translate(287.7258033698455 0.0)" xlink:href="#finger_1994151924896"/>
<use transform="translate(20.0 3590.8070812687374) rotate(-90.0) translate(323.69152879107617 0.0)" xlink:href="#finger_1994151924896"/>
<use transform="translate(20.0 3590.8070812687374) rotate(-90.0) translate(359.65725421230684 0.0)" xlink:href="#finger_1994151924896"/>
<use transform="translate(20.0 3590.8070812687374) rotate(-90.0) translate(395.62297963353757 0.0)" xlink:href="#finger_1994151924896"/>
<use transform="translate(20.0 3590.8070812687374) rotate(-90.0) translate(431.58870505476824 0.0)" xlink:href="#finger_1994151924896"/>
<use transform="translate(20.0 3590.8070812687374) rotate(-90.0) translate(467.5544304759989 0.0)" xlink:href="#finger_1994151924896"/>
<use transform="translate(20.0 3590.8070812687374) rotate(-90.0) translate(503.52015589722964 0.0)" xlink:href="#finger_1994151924896"/>
<use transform="translate(20.0 3590.8070812687374) rotate(-90.0) translate(539.4858813184603 0.0)" xlink:href="#finger_1994151924896"/>
<use transform="translate(20.0 3590.8070812687374) rotate(-90.0) translate(575.451606739691 0.0)" xlink:href="#finger_1994151924896"/>
<use transform="translate(20.0 3590.8070812687374) rotate(-90.0) translate(611.4173321609217 0.0)" xlink:href="#finger_1994151924896"/>
<use transform="translate(20.0 3590.8070812687374) rotate(-90.0) translate(647.3830575821523 0.0)" xlink:href="#finger_1994151924896"/>
<use transform="translate(20.0 3590.8070812687374) rotate(-90.0) translate(683.348783003383 0.0)" xlink:href="#finger_1994151924896"/>
<use transform="translate(20.0 3590.8070812687374) rotate(-90.0) translate(719.3145084246137 0.0)" xlink:href="#finger_1994151924896"/>
<use transform="translate(20.0 3590.8070812687374) rotate(-90.0) translate(755.2802338458445 0.0)" xlink:href="#finger_1994151924896"/>
<use transform="translate(20.0 3590.8070812687374) rotate(-90.0) translate(791.2459592670751 0.0)" xlink:href="#finger_1994151924896"/>
<use transform="translate(20.0 3590.8070812687374) rotate(-90.0) translate(827.2116846883058 0.0)" xlink:href="#finger_1994151924896"/>
<use transform="translate(20.0 3590.8070812687374) rotate(-90.0) translate(863.1774101095365 0.0)" xlink:href="#finger_1994151924896"/>
<use transform="translate(20.0 3590.8070812687374) rotate(-90.0) translate(899.1431355307672 0.0)" xlink:href="#finger_1994151924896"/>
<use transform="translate(20.0 3590.8070812687374) rotate(-90.0) translate(935.1088609519978 0.0)" xlink:href="#finger_1994151924896"/>
<use transform="translate(20.0 3590.8070812687374) rotate(-90.0) translate(971.0745863732285 0.0)" xlink:href="#finger_1994151924896"/>
<use transform="translate(20.0 3590.8070812687374) rotate(-90.0) translate(1007.0403117944593 0.0)" xlink:href="#finger_1994151924896"/>
<use transform="translate(20.0 3590.8070812687374) rotate(-90.0) translate(1043.00603721569 0.0)" xlink:href="#finger_1994151924896"/>
<use transform="translate(20.0 3590.8070812687374) rotate(-90.0) translate(1078.9717626369206 0.0)" xlink:href="#finger_1994151924896"/>
<use transform="translate(20.0 3590.8070812687374) rotate(-90.0) translate(1114.9374880581513 0.0)" xlink:href="#finger_1994151924896"/>
<use transform="translate(20.0 3590.8070812687374) rotate(-90.0) translate(1150.903213479382 0.0)" xlink:href="#finger_1994151924896"/>
<use transform="translate(20.0 3590.8070812687374) rotate(-90.0) translate(1186.8689389006126 0.0)" xlink:href="#finger_1994151924896"/>
<use transform="translate(20.0 3590.8070812687374) rotate(-90.0) translate(1222.8346643218433 0.0)" xlink:href="#finger_1994151924896"/>
<use transform="translate(20.0 3590.8070812687374) rotate(-90.0) translate(1258.800389743074 0.0)" xlink:href="#finger_1994151924896"/>
<use transform="translate(20.0 3590.8070812687374) rotate(-90.0) translate(1294.7661151643047 0.0)" xlink:href="#finger_1994151924896"/>
<use transform="translate(20.0 3590.8070812687374) rotate(-90.0) translate(1330.7318405855353 0.0)" xlink:href="#finger_1994151924896"/>
<use transform="translate(20.0 3590.8070812687374) rotate(-90.0) translate(1366.697566006766 0.0)" xlink:href="#finger_1994151924896"/>
<use transform="translate(20.0 3590.8070812687374) rotate(-90.0) translate(1402.6632914279967 0.0)" xlink:href="#finger_1994151924896"/>
<use transform="translate(20.0 3590.8070812687374) rotate(-90.0) translate(1438.6290168492274 0.0)" xlink:href="#finger_1994151924896"/>
<use transform="translate(20.0 3590.8070812687374) rotate(-90.0) translate(1474.5947422704583 0.0)" xlink:href="#finger_1994151924896"/>
<use transform="translate(20.0 3590.8070812687374) rotate(-90.0) translate(1510.560467691689 0.0)" xlink:href="#finger_1994151924896"/>
<use transform="translate(20.0 3590.8070812687374) rotate(-90.0) translate(1546.5261931129196 0.0)" xlink:href="#finger_1994151924896"/>
<use transform="translate(20.0 3590.8070812687374) rotate(-90.0) translate(1582.4919185341503 0.0)" xlink:href="#finger_1994151924896"/>
<use transform="translate(20.0 3590.8070812687374) rotate(-90.0) translate(1618.457643955381 0.0)" xlink:href="#finger_1994151924896"/>
<use transform="translate(20.0 3590.8070812687374) rotate(-90.0) translate(1654.4233693766116 0.0)" xlink:href="#finger_1994151924896"/>
<use transform="translate(20.0 3590.8070812687374) rotate(-90.0) translate(1690.3890947978423 0.0)" xlink:href="#finger_1994151924896"/>
<use transform="translate(20.0 3590.8070812687374) rotate(-90.0) translate(1726.354820219073 0.0)" xlink:href="#finger_1994151924896"/>
<use transform="translate(20.0 3590.8070812687374) rotate(-90.0) translate(1762.3205456403036 0.0)" xlink:href="#finger_1994151924896"/>
<use transform="translate(20.0 3590.8070812687374) rotate(-90.0) translate(1798.2862710615343 0.0)" xlink:href="#finger_1994151924896"/>
<use transform="translate(20.0 3590.8070812687374) rotate(-90.0) translate(1834.251996482765 0.0)" xlink:href="#finger_1994151924896"/>
<use transform="translate(20.0 3590.8070812687374) rotate(-90.0) translate(1870.2177219039957 0.0)" xlink:href="#finger_1994151924896"/>
<use transform="translate(20.0 3590.8070812687374) rotate(-90.0) translate(1906.1834473252263 0.0)" xlink:href="#finger_1994151924896"/>
<use transform="translate(20.0 3590.8070812687374) rotate(-90.0) translate(1942.149172746457 0.0)" xlink:href="#finger_1994151924896"/>
<use transform="translate(20.0 3590.8070812687374) rotate(-90.0) translate(1978.1148981676877 0.0)" xlink:href="#finger_1994151924896"/>
<use transform="translate(20.0 3590.8070812687374) rotate(-90.0) translate(2014.0806235889186 0.0)" xlink:href="#finger_1994151924896"/>
<use transform="translate(20.0 3590.8070812687374) rotate(-90.0) translate(2050.0463490101492 0.0)" xlink:href="#finger_1994151924896"/>
<use transform="translate(20.0 3590.8070812687374) rotate(-90.0) translate(2086.01207443138 0.0)" xlink:href="#finger_1994151924896"/>
<use transform="translate(20.0 3590.8070812687374) rotate(-90.0) translate(2121.9777998526106 0.0)" xlink:href="#finger_1994151924896"/>
<use transform="translate(20.0 3590.8070812687374) rotate(-90.0) translate(2157.9435252738413 0.0)" xlink:href="#finger_1994151924896"/>
<use transform="translate(20.0 3590.8070812687374) rotate(-90.0) translate(2193.909250695072 0.0)" xlink:href="#finger_1994151924896"/>
<use transform="translate(20.0 3590.8070812687374) rotate(-90.0) translate(2229.8749761163026 0.0)" xlink:href="#finger_1994151924896"/>
<use transform="translate(20.0 3590.8070812687374) rotate(-90.0) translate(2265.8407015375333 0.0)" xlink:href="#finger_1994151924896"/>
<use transform="translate(20.0 3590.8070812687374) rotate(-90.0) translate(2301.806426958764 0.0)" xlink:href="#finger_1994151924896"/>
<use transform="translate(20.0 3590.8070812687374) rotate(-90.0) translate(2337.7721523799946 0.0)" xlink:href="#finger_1994151924896"/>
<use transform="translate(20.0 3590.8070812687374) rotate(-90.0) translate(2373.7378778012253 0.0)" xlink:href="#finger_1994151924896"/>
<use transform="translate(20.0 3590.8070812687374) rotate(-90.0) translate(2409.703603222456 0.0)" xlink:href="#finger_1994151924896"/>
<use transform="translate(20.0 3590.8070812687374) rotate(-90.0) translate(2445.6693286436866 0.0)" xlink:href="#finger_1994151924896"/>
<use transform="translate(20.0 3590.8070812687374) rotate(-90.0) translate(2481.6350540649173 0.0)" xlink:href="#finger_1994151924896"/>
<use transform="translate(20.0 3590.8070812687374) rotate(-90.0) translate(2517.600779486148 0.0)" xlink:href="#finger_1994151924896"/>
<use transform="translate(20.0 3590.8070812687374) rotate(-90.0) translate(2553.5665049073787 0.0)" xlink:href="#finger_1994151924896"/>
<use transform="translate(20.0 3590.8070812687374) rotate(-90.0) translate(2589.5322303286093 0.0)" xlink:href="#finger_1994151924896"/>
<use transform="translate(20.0 3590.8070812687374) rotate(-90.0) translate(2625.49795574984 0.0)" xlink:href="#finger_1994151924896"/>
<use transform="translate(20.0 3590.8070812687374) rotate(-90.0) translate(2661.4636811710707 0.0)" xlink:href="#finger_1994151924896"/>
<use transform="translate(20.0 3590.8070812687374) rotate(-90.0) translate(2697.4294065923013 0.0)" xlink:href="#finger_1994151924896"/>
<use transform="translate(20.0 3590.8070812687374) rotate(-90.0) translate(2733.395132013532 0.0)" xlink:href="#finger_1994151924896"/>
<use transform="translate(20.0 3590.8070812687374) rotate(-90.0) translate(2769.3608574347627 0.0)" xlink:href="#finger_1994151924896"/>
<use transform="translate(20.0 3590.8070812687374) rotate(-90.0) translate(2805.3265828559934 0.0)" xlink:href="#finger_1994151924896"/>
<use transform="translate(20.0 3590.8070812687374) rotate(-90.0) translate(2841.292308277224 0.0)" xlink:href="#finger_1994151924896"/>
<use transform="translate(20.0 3590.8070812687374) rotate(-90.0) translate(2877.2580336984547 0.0)" xlink:href="#finger_1994151924896"/>
<use transform="translate(20.0 3590.8070812687374) rotate(-90.0) translate(2913.223759119686 0.0)" xlink:href="#finger_1994151924896"/>
<use transform="translate(20.0 3590.8070812687374) rotate(-90.0) translate(2949.1894845409165 0.0)" xlink:href="#finger_1994151924896"/>
<use transform="translate(20.0 3590.8070812687374) rotate(-90.0) translate(2985.155209962147 0.0)" xlink:href="#finger_1994151924896"/>
<use transform="translate(20.0 3590.8070812687374) rotate(-90.0) translate(3021.120935383378 0.0)" xlink:href="#finger_1994151924896"/>
<use transform="translate(20.0 3590.8070812687374) rotate(-90.0) translate(3057.0866608046085 0.0)" xlink:href="#finger_1994151924896"/>
<use transform="translate(20.0 3590.8070812687374) rotate(-90.0) translate(3093.052386225839 0.0)" xlink:href="#finger_1994151924896"/>
<use transform="translate(20.0 3590.8070812687374) rotate(-90.0) translate(3129.01811164707 0.0)" xlink:href="#finger_1994151924896"/>
<use transform="translate(20.0 3590.8070812687374) rotate(-90.0) translate(3164.9838370683005 0.0)" xlink:href="#finger_1994151924896"/>
<use transform="translate(20.0 3590.8070812687374) rotate(-90.0) translate(3200.949562489531 0.0)" xlink:href="#finger_1994151924896"/>
<use transform="translate(20.0 3590.8070812687374) rotate(-90.0) translate(3236.915287910762 0.0)" xlink:href="#finger_1994151924896"/>
<use transform="translate(20.0 3590.8070812687374) rotate(-90.0) translate(3272.8810133319926 0.0)" xlink:href="#finger_1994151924896"/>
<use transform="translate(20.0 3590.8070812687374) rotate(-90.0) translate(3308.8467387532232 0.0)" xlink:href="#finger_1994151924896"/>
<use transform="translate(20.0 3590.8070812687374) rotate(-90.0) translate(3344.812464174454 0.0)" xlink:href="#finger_1994151924896"/>
<use transform="translate(20.0 3590.8070812687374) rotate(-90.0) translate(3380.7781895956846 0.0)" xlink:href="#finger_1994151924896"/>
<use transform="translate(20.0 3590.8070812687374) rotate(-90.0) translate(3416.7439150169153 0.0)" xlink:href="#finger_1994151924896"/>
<use transform="translate(20.0 3590.8070812687374) rotate(-90.0) translate(3452.709640438146 0.0)" xlink:href="#finger_1994151924896"/>
<use transform="translate(20.0 3590.8070812687374) rotate(-90.0) translate(3488.6753658593766 0.0)" xlink:href="#finger_1994151924896"/>
<use transform="translate(20.0 3590.8070812687374) rotate(-90.0) translate(3524.6410912806073 0.0)" xlink:href="#finger_1994151924896"/>
<use transform="translate(20.0 3590.8070812687374) rotate(-90.0) translate(3560.606816701838 0.0)" xlink:href="#finger_1994151924896"/>
<use transform="translate(-20.0 3590.8070812687374) rotate(-90.0) scale(1 -1) translate(0.0 0.0)" xlink:href="#finger_1994151924896"/>
<use transform="translate(-20.0 3590.8070812687374) rotate(-90.0) scale(1 -1) translate(35.96572542123069 0.0)" xlink:href="#finger_1994151924896"/>
<use transform="translate(-20.0 3590.8070812687374) rotate(-90.0) scale(1 -1) translate(71.93145084246137 0.0)" xlink:href="#finger_1994151924896"/>
<use transform="translate(-20.0 3590.8070812687374) rotate(-90.0) scale(1 -1) translate(107.89717626369206 0.0)" xlink:href="#finger_1994151924896"/>
<use transform="translate(-20.0 3590.8070812687374) rotate(-90.0) scale(1 -1) translate(143.86290168492275 0.0)" xlink:href="#finger_1994151924896"/>
<use transform="translate(-20.0 3590.8070812687374) rotate(-90.0) scale(1 -1) translate(179.82862710615342 0.0)" xlink:href="#finger_1994151924896"/>
<use transform="translate(-20.0 3590.8070812687374) rotate(-90.0) scale(1 -1) translate(215.79435252738412 0.0)" xlink:href="#finger_1994151924896"/>
<use transform="translate(-20.0 3590.8070812687374) rotate(-90.0) scale(1 -1) translate(251.76007794861482 0.0)" xlink:href="#finger_1994151924896"/>
<use transform="translate(-20.0 3590.8070812687374) rotate(-90.0) scale(1 -1) translate(287.7258033698455 0.0)" xlink:href="#finger_1994151924896"/>
<use transform="translate(-20.0 3590.8070812687374) rotate(-90.0) scale(1 -1) translate(323.69152879107617 0.0)" xlink:href="#finger_1994151924896"/>
<use transform="translate(-20.0 3590.8070812687374) rotate(-90.0) scale(1 -1) translate(359.65725421230684 0.0)" xlink:href="#finger_1994151924896"/>
<use transform="translate(-20.0 3590.8070812687374) rotate(-90.0) scale(1 -1) translate(395.62297963353757 0.0)" xlink:href="#finger_1994151924896"/>
<use transform="translate(-20.0 3590.8070812687374) rotate(-90.0) scale(1 -1) translate(431.58870505476824 0.0)" xlink:href="#finger_1994151924896"/>
<use transform="translate(-20.0 3590.8070812687374) rotate(-90.0) scale(1 -1) translate(467.5544304759989 0.0)" xlink:href="#finger_1994151924896"/>
<use transform="translate(-20.0 3590.8070812687374) rotate(-90.0) scale(1 -1) translate(503.52015589722964 0.0)" xlink:href="#finger_1994151924896"/>
<use transform="translate(-20.0 3590.8070812687374) rotate(-90.0) scale(1 -1) translate(539.4858813184603 0.0)" xlink:href="#finger_1994151924896"/>
<use transform="translate(-20.0 3590.8070812687374) rotate(-90.0) scale(1 -1) translate(575.451606739691 0.0)" xlink:href="#finger_1994151924896"/>
<use transform="translate(-20.0 3590.8070812687374) rotate(-90.0) scale(1 -1) translate(611.4173321609217 0.0)" xlink:href="#finger_1994151924896"/>
<use transform="translate(-20.0 3590.8070812687374) rotate(-90.0) scale(1 -1) translate(647.3830575821523 0.0)" xlink:href="#finger_1994151924896"/>
<use transform="translate(-20.0 3590.8070812687374) rotate(-90.0) scale(1 -1) translate(683.348783003383 0.0)" xlink:href="#finger_1994151924896"/>
<use transform="translate(-20.0 3590.8070812687374) rotate(-90.0) scale(1 -1) translate(719.3145084246137 0.0)" xlink:href="#finger_1994151924896"/>
<use transform="translate(-20.0 3590.8070812687374) rotate(-90.0) scale(1 -1) translate(755.2802338458445 0.0)" xlink:href="#finger_1994151924896"/>
<use transform="translate(-20.0 3590.8070812687374) rotate(-90.0) scale(1 -1) translate(791.2459592670751 0.0)" xlink:href="#finger_1994151924896"/>
<use transform="translate(-20.0 3590.8070812687374) rotate(-90.0) scale(1 -1) translate(827.2116846883058 0.0)" xlink:href="#finger_1994151924896"/>
<use transform="translate(-20.0 3590.8070812687374) rotate(-90.0) scale(1 -1) translate(863.1774101095365 0.0)" xlink:href="#finger_1994151924896"/>
<use transform="translate(-20.0 3590.8070812687374) rotate(-90.0) scale(1 -1) translate(899.1431355307672 0.0)" xlink:href="#finger_1994151924896"/>
<use transform="translate(-20.0 3590.8070812687374) rotate(-90.0) scale(1 -1) translate(935.1088609519978 0.0)" xlink:href="#finger_1994151924896"/>
<use transform="translate(-20.0 3590.8070812687374) rotate(-90.0) scale(1 -1) translate(971.0745863732285 0.0)" xlink:href="#finger_1994151924896"/>
<use transform="translate(-20.0 3590.8070812687374) rotate(-90.0) scale(1 -1) translate(1007.0403117944593 0.0)" xlink:href="#finger_1994151924896"/>
<use transform="translate(-20.0 3590.8070812687374) rotate(-90.0) scale(1 -1) translate(1043.00603721569 0.0)" xlink:href="#finger_1994151924896"/>
<use transform="translate(-20.0 3590.8070812687374) rotate(-90.0) scale(1 -1) translate(1078.9717626369206 0.0)" xlink:href="#finger_1994151924896"/>
<use transform="translate(-20.0 3590.8070812687374) rotate(-90.0) scale(1 -1) translate(1114.9374880581513 0.0)" xlink:href="#finger_1994151924896"/>
<use transform="translate(-20.0 3590.8070812687374) rotate(-90.0) scale(1 -1) translate(1150.903213479382 0.0)" xlink:href="#finger_1994151924896"/>
<use transform="translate(-20.0 3590.8070812687374) rotate(-90.0) scale(1 -1) translate(1186.8689389006126 0.0)" xlink:href="#finger_1994151924896"/>
<use transform="translate(-20.0 3590.8070812687374) rotate(-90.0) scale(1 -1) translate(1222.8346643218433 0.0)" xlink:href="#finger_1994151924896"/>
<use transform="translate(-20.0 3590.8070812687374) rotate(-90.0) scale(1 -1) translate(1258.800389743074 0.0)" xlink:href="#finger_1994151924896"/>
<use transform="translate(-20.0 3590.8070812687374) rotate(-90.0) scale(1 -1) translate(1294.7661151643047 0.0)" xlink:href="#finger_1994151924896"/>
<use transform="translate(-20.0 3590.8070812687374) rotate(-90.0) scale(1 -1) translate(1330.7318405855353 0.0)" xlink:href="#finger_1994151924896"/>
<use transform="translate(-20.0 3590.8070812687374) rotate(-90.0) scale(1 -1) translate(1366.697566006766 0.0)" xlink:href="#finger_1994151924896"/>
<use transform="translate(-20.0 3590.8070812687374) rotate(-90.0) scale(1 -1) translate(1402.6632914279967 0.0)" xlink:href="#finger_1994151924896"/>
<use transform="translate(-20.0 3590.8070812687374) rotate(-90.0) scale(1 -1) translate(1438.6290168492274 0.0)" xlink:href="#finger_1994151924896"/>
<use transform="translate(-20.0 3590.8070812687374) rotate(-90.0) scale(1 -1) translate(1474.5947422704583 0.0)" xlink:href="#finger_1994151924896"/>
<use transform="translate(-20.0 3590.8070812687374) rotate(-90.0) scale(1 -1) translate(1510.560467691689 0.0)" xlink:href="#finger_1994151924896"/>
<use transform="translate(-20.0 3590.8070812687374) rotate(-90.0) scale(1 -1) translate(1546.5261931129196 0.0)" xlink:href="#finger_1994151924896"/>
<use transform="translate(-20.0 3590.8070812687374) rotate(-90.0) scale(1 -1) translate(1582.4919185341503 0.0)" xlink:href="#finger_1994151924896"/>
<use transform="translate(-20.0 3590.8070812687374) rotate(-90.0) scale(1 -1) translate(1618.457643955381 0.0)" xlink:href="#finger_1994151924896"/>
<use transform="translate(-20.0 3590.8070812687374) rotate(-90.0) scale(1 -1) translate(1654.4233693766116 0.0)" xlink:href="#finger_1994151924896"/>
<use transform="translate(-20.0 3590.8070812687374) rotate(-90.0) scale(1 -1) translate(1690.3890947978423 0.0)" xlink:href="#finger_1994151924896"/>
<use transform="translate(-20.0 3590.8070812687374) rotate(-90.0) scale(1 -1) translate(1726.354820219073 0.0)" xlink:href="#finger_1994151924896"/>
<use transform="translate(-20.0 3590.8070812687374) rotate(-90.0) scale(1 -1) translate(1762.3205456403036 0.0)" xlink:href="#finger_1994151924896"/>
<use transform="translate(-20.0 3590.8070812687374) rotate(-90.0) scale(1 -1) translate(1798.2862710615343 0.0)" xlink:href="#finger_1994151924896"/>
<use transform="translate(-20.0 3590.8070812687374) rotate(-90.0) scale(1 -1) translate(1834.251996482765 0.0)" xlink:href="#finger_1994151924896"/>
<use transform="translate(-20.0 3590.8070812687374) rotate(-90.0) scale(1 -1) translate(1870.2177219039957 0.0)" xlink:href="#finger_1994151924896"/>
<use transform="translate(-20.0 3590.8070812687374) rotate(-90.0) scale(1 -1) translate(1906.1834473252263 0.0)" xlink:href="#finger_1994151924896"/>
<use transform="translate(-20.0 3590.8070812687374) rotate(-90.0) scale(1 -1) translate(1942.149172746457 0.0)" xlink:href="#finger_1994151924896"/>
<use transform="translate(-20.0 3590.8070812687374) rotate(-90.0) scale(1 -1) translate(1978.1148981676877 0.0)" xlink:href="#finger_1994151924896"/>
<use transform="translate(-20.0 3590.8070812687374) rotate(-90.0) scale(1 -1) translate(2014.0806235889186 0.0)" xlink:href="#finger_1994151924896"/>
<use transform="translate(-20.0 3590.8070812687374) rotate(-90.0) scale(1 -1) translate(2050.0463490101492 0.0)" xlink:href="#finger_1994151924896"/>
<use transform="translate(-20.0 3590.8070812687374) rotate(-90.0) scale(1 -1) translate(2086.01207443138 0.0)" xlink:href="#finger_1994151924896"/>
<use transform="translate(-20.0 3590.8070812687374) rotate(-90.0) scale(1 -1) translate(2121.9777998526106 0.0)" xlink:href="#finger_1994151924896"/>
<use transform="translate(-20.0 3590.8070812687374) rotate(-90.0) scale(1 -1) translate(2157.9435252738413 0.0)" xlink:href="#finger_1994151924896"/>
<use transform="translate(-20.0 3590.8070812687374) rotate(-90.0) scale(1 -1) translate(2193.909250695072 0.0)" xlink:href="#finger_1994151924896"/>
<use transform="translate(-20.0 3590.8070812687374) rotate(-90.0) scale(1 -1) translate(2229.8749761163026 0.0)" xlink:href="#finger_1994151924896"/>
<use transform="translate(-20.0 3590.8070812687374) rotate(-90.0) scale(1 -1) translate(2265.8407015375333 0.0)" xlink:href="#finger_1994151924896"/>
<use transform="translate(-20.0 3590.8070812687374) rotate(-90.0) scale(1 -1) translate(2301.806426958764 0.0)" xlink:href="#finger_1994151924896"/>
<use transform="translate(-20.0 3590.8070812687374) rotate(-90.0) scale(1 -1) translate(2337.7721523799946 0.0)" xlink:href="#finger_1994151924896"/>
<use transform="translate(-20.0 3590.8070812687374) rotate(-90.0) scale(1 -1) translate(2373.7378778012253 0.0)" xlink:href="#finger_1994151924896"/>
<use transform="translate(-20.0 3590.8070812687374) rotate(-90.0) scale(1 -1) translate(2409.703603222456 0.0)" xlink:href="#finger_1994151924896"/>
<use transform="translate(-20.0 3590.8070812687374) rotate(-90.0) scale(1 -1) translate(2445.6693286436866 0.0)" xlink:href="#finger_1994151924896"/>
<use transform="translate(-20.0 3590.8070812687374) rotate(-90.0) scale(1 -1) translate(2481.6350540649173 0.0)" xlink:href="#finger_1994151924896"/>
<use transform="translate(-20.0 3590.8070812687374) rotate(-90.0) scale(1 -1) translate(2517.600779486148 0.0)" xlink:href="#finger_1994151924896"/>
<use transform="translate(-20.0 3590.8070812687374) rotate(-90.0) scale(1 -1) translate(2553.5665049073787 0.0)" xlink:href="#finger_1994151924896"/>
<use transform="translate(-20.0 3590.8070812687374) rotate(-90.0) scale(1 -1) translate(2589.5322303286093 0.0)" xlink:href="#finger_1994151924896"/>
<use transform="translate(-20.0 3590.8070812687374) rotate(-90.0) scale(1 -1) translate(2625.49795574984 0.0)" xlink:href="#finger_1994151924896"/>
<use transform="translate(-20.0 3590.8070812687374) rotate(-90.0) scale(1 -1) translate(2661.4636811710707 0.0)" xlink:href="#finger_1994151924896"/>
<use transform="translate(-20.0 3590.8070812687374) rotate(-90.0) scale(1 -1) translate(2697.4294065923013 0.0)" xlink:href="#finger_1994151924896"/>
<use transform="translate(-20.0 3590.8070812687374) rotate(-90.0) scale(1 -1) translate(2733.395132013532 0.0)" xlink:href="#finger_1994151924896"/>
<use transform="translate(-20.0 3590.8070812687374) rotate(-90.0) scale(1 -1) translate(2769.3608574347627 0.0)" xlink:href="#finger_1994151924896"/>
<use transform="translate(-20.0 3590.8070812687374) rotate(-90.0) scale(1 -1) translate(2805.3265828559934 0.0)" xlink:href="#finger_1994151924896"/>
<use transform="translate(-20.0 3590.8070812687374) rotate(-90.0) scale(1 -1) translate(2841.292308277224 0.0)" xlink:href="#finger_1994151924896"/>
<use transform="translate(-20.0 3590.8070812687374) rotate(-90.0) scale(1 -1) translate(2877.2580336984547 0.0)" xlink:href="#finger_1994151924896"/>
<use transform="translate(-20.0 3590.8070812687374) rotate(-90.0) scale(1 -1) translate(2913.223759119686 0.0)" xlink:href="#finger_1994151924896"/>
<use transform="translate(-20.0 3590.8070812687374) rotate(-90.0) scale(1 -1) translate(2949.1894845409165 0.0)" xlink:href="#finger_1994151924896"/>
<use transform="translate(-20.0 3590.8070812687374) rotate(-90.0) scale(1 -1) translate(2985.155209962147 0.0)" xlink:href="#finger_1994151924896"/>
<use transform="translate(-20.0 3590.8070812687374) rotate(-90.0) scale(1 -1) translate(3021.120935383378 0.0)" xlink:href="#finger_1994151924896"/>
<use transform="translate(-20.0 3590.8070812687374) rotate(-90.0) scale(1 -1) translate(3057.0866608046085 0.0)" xlink:href="#finger_1994151924896"/>
<use transform="translate(-20.0 3590.8070812687374) rotate(-90.0) scale(1 -1) translate(3093.052386225839 0.0)" xlink:href="#finger_1994151924896"/>
<use transform="translate(-20.0 3590.8070812687374) rotate(-90.0) scale(1 -1) translate(3129.01811164707 0.0)" xlink:href="#finger_1994151924896"/>
<use transform="translate(-20.0 3590.8070812687374) rotate(-90.0) scale(1 -1) translate(3164.9838370683005 0.0)" xlink:href="#finger_1994151924896"/>
<use transform="translate(-20.0 3590.8070812687374) rotate(-90.0) scale(1 -1) translate(3200.949562489531 0.0)" xlink:href="#finger_1994151924896"/>
<use transform="translate(-20.0 3590.8070812687374) rotate(-90.0) scale(1 -1) translate(3236.915287910762 0.0)" xlink:href="#finger_1994151924896"/>
<use transform="translate(-20.0 3590.8070812687374) rotate(-90.0) scale(1 -1) translate(3272.8810133319926 0.0)" xlink:href="#finger_1994151924896"/>
<use transform="translate(-20.0 3590.8070812687374) rotate(-90.0) scale(1 -1) translate(3308.8467387532232 0.0)" xlink:href="#finger_1994151924896"/>
<use transform="translate(-20.0 3590.8070812687374) rotate(-90.0) scale(1 -1) translate(3344.812464174454 0.0)" xlink:href="#finger_1994151924896"/>
<use transform="translate(-20.0 3590.8070812687374) rotate(-90.0) scale(1 -1) translate(3380.7781895956846 0.0)" xlink:href="#finger_1994151924896"/>
<use transform="translate(-20.0 3590.8070812687374) rotate(-90.0) scale(1 -1) translate(3416.7439150169153 0.0)" xlink:href="#finger_1994151924896"/>
<use transform="translate(-20.0 3590.8070812687374) rotate(-90.0) scale(1 -1) translate(3452.709640438146 0.0)" xlink:href="#finger_1994151924896"/>
<use transform="translate(-20.0 3590.8070812687374) rotate(-90.0) scale(1 -1) translate(3488.6753658593766 0.0)" xlink:href="#finger_1994151924896"/>
<use transform="translate(-20.0 3590.8070812687374) rotate(-90.0) scale(1 -1) translate(3524.6410912806073 0.0)" xlink:href="#finger_1994151924896"/>
<use transform="translate(-20.0 3590.8070812687374) rotate(-90.0) scale(1 -1) translate(3560.606816701838 0.0)" xlink:href="#finger_1994151924896"/>
<use transform="translate(0.0 3652.5725421230686)" xlink:href="#gstop_bar1994151924896"/>
<use transform="translate(0.0 3789.598620638041)" xlink:href="#Arm_1994151924896"/>
</g>
</defs>
<g id="GCA_1994151924896" transform="scale(1 -1)">
<polygon class="l3d0" points="30.0,3765.598620638041 30.0,3665.598620638041 130.0,3665.598620638041 130.0,3765.598620638041"/>
<polygon class="l3d0" points="-130.0,3765.598620638041 -130.0,3665.598620638041 -30.0,3665.598620638041 -30.0,3765.598620638041"/>
<use transform="translate(0.0 0.0)" xlink:href="#back_stop1994151924896"/>
<use transform="translate(0.0 0.0)" xlink:href="#GCA_ROT_1994151924896"/>
<use transform="translate(0.0 0.0)" xlink:href="#GCA_STA_1994151924896"/>
</g>
</svg>